id,name,model_id:id,group_id:id,perm_read,perm_write,perm_create,perm_unlink
access_rest_api_access_token,rest.api.access.token,model_rest_api_access_token,base.group_system,1,1,1,1
access_rest_api_refresh_token,rest.api.refresh.token,model_rest_api_refresh_token,base.group_system,1,1,1,1
access_location_register,location_register,model_location_register,group_location_work,1,1,1,1
