id,name,model_id:id,group_id:id,perm_read,perm_write,perm_create,perm_unlink
access_tank_level,tank_level,model_tank_level,mn_atg_connect.group_atg_user,1,1,1,0
access_atg_conf,atg_conf,model_atg_conf,mn_atg_connect.group_atg_user,1,0,0,0
access_tank_level1,tank_level_man,model_tank_level,mn_atg_connect.group_atg_manager,1,1,1,1
access_atg_conf1,atg_conf_man,model_atg_conf,mn_atg_connect.group_atg_manager,1,1,1,1
