id,name,model_id:id,group_id:id,perm_read,perm_write,perm_create,perm_unlink
access_vat_information,vat.information,model_vat_information,point_of_sale.group_pos_user,1,1,0,0
access_vat_information_manager,vat.information,model_vat_information,point_of_sale.group_pos_manager,1,1,1,1
access_vat_data,vat.data,model_vat_data,point_of_sale.group_pos_user,1,1,0,0
access_vat_data_manager,vat.data,model_vat_data,point_of_sale.group_pos_manager,1,1,1,1
access_vat_data_line,vat.data.line,model_vat_data_line,point_of_sale.group_pos_user,1,1,0,0
access_vat_data_line_manager,vat.data.line,model_vat_data_line,point_of_sale.group_pos_manager,1,1,1,1
